<svg width="99" height="101" viewBox="0 0 99 101" fill="none" xmlns="http://www.w3.org/2000/svg">
<line x1="2.49925" y1="-0.656543" x2="2.85389" y2="99.6627" stroke="#A14258" stroke-width="5"/>
<line x1="99.9948" y1="97.8064" x2="0.348565" y2="98.1586" stroke="#A14258" stroke-width="5"/>
</svg>
