<?xml version="1.0" encoding="utf-8"?>
<!-- Generator: Adobe Illustrator 23.0.1, SVG Export Plug-In . SVG Version: 6.00 Build 0)  -->
<svg version="1.1" id="Layer_1" xmlns="http://www.w3.org/2000/svg" xmlns:xlink="http://www.w3.org/1999/xlink" x="0px" y="0px"
	 viewBox="0 0 432 288" enable-background="new 0 0 432 288" xml:space="preserve">
<g>
	<g>
		<g>
			<defs>
				<rect id="SVGID_1_" x="0" y="0" width="432" height="288"/>
			</defs>
			<linearGradient id="SVGID_2_" gradientUnits="userSpaceOnUse" x1="276.8299" y1="378.7739" x2="155.8304" y2="-88.2254">
				<stop  offset="0" style="stop-color:#FBFBFB"/>
				<stop  offset="0.419" style="stop-color:#F5F5F5"/>
				<stop  offset="0.9893" style="stop-color:#E4E3E4"/>
				<stop  offset="1" style="stop-color:#E4E3E4"/>
			</linearGradient>
			<use xlink:href="#SVGID_1_"  overflow="visible" fill="url(#SVGID_2_)"/>
			<clipPath id="SVGID_3_">
				<use xlink:href="#SVGID_1_"  overflow="visible"/>
			</clipPath>
			<g clip-path="url(#SVGID_3_)">
				<radialGradient id="SVGID_4_" cx="132.6373" cy="20.1908" r="99.9696" gradientUnits="userSpaceOnUse">
					<stop  offset="0" style="stop-color:#B0B0B0"/>
					<stop  offset="0.1455" style="stop-color:#C0C0C0"/>
					<stop  offset="0.5068" style="stop-color:#E2E2E2"/>
					<stop  offset="0.8046" style="stop-color:#F7F7F7"/>
					<stop  offset="1" style="stop-color:#FFFFFF"/>
				</radialGradient>
				<path fill="url(#SVGID_4_)" d="M40.024-17.499c-4.739,11.632-7.356,24.354-7.356,37.689c0,55.212,44.758,99.969,99.97,99.969
					c55.212,0,99.97-44.758,99.97-99.969c0-13.335-2.618-26.057-7.356-37.689H40.024z"/>
				<radialGradient id="SVGID_5_" cx="17.085" cy="203.9496" r="140.0732" gradientUnits="userSpaceOnUse">
					<stop  offset="0" style="stop-color:#B0B0B0"/>
					<stop  offset="0.1455" style="stop-color:#C0C0C0"/>
					<stop  offset="0.5068" style="stop-color:#E2E2E2"/>
					<stop  offset="0.8046" style="stop-color:#F7F7F7"/>
					<stop  offset="1" style="stop-color:#FFFFFF"/>
				</radialGradient>
				<path fill="url(#SVGID_5_)" d="M92.536,321.985c38.864-24.894,64.622-68.456,64.622-118.035
					c0-77.36-62.713-140.073-140.073-140.073c-24.897,0-48.271,6.504-68.532,17.893v240.215H92.536z"/>
				<g>
					<g>
						<linearGradient id="SVGID_6_" gradientUnits="userSpaceOnUse" x1="-80.1857" y1="44.8177" x2="-32.3523" y2="-3.0156">
							<stop  offset="0" style="stop-color:#FBFBFB"/>
							<stop  offset="0.419" style="stop-color:#F5F5F5"/>
							<stop  offset="0.9893" style="stop-color:#E4E3E4"/>
							<stop  offset="1" style="stop-color:#E4E3E4"/>
						</linearGradient>
						<polygon fill="url(#SVGID_6_)" points="-46.114,-6.093 -46.114,27.585 -36.392,10.746 						"/>
						<path fill="#FFFFFF" d="M-45.327-3.158l8.027,13.904l-8.027,13.904V-3.158 M-46.113-6.093v33.678l9.722-16.839L-46.113-6.093
							L-46.113-6.093z"/>
					</g>
					<g>
						<linearGradient id="SVGID_7_" gradientUnits="userSpaceOnUse" x1="-37.1227" y1="9.82" x2="10.7107" y2="-38.0133">
							<stop  offset="0" style="stop-color:#FBFBFB"/>
							<stop  offset="0.419" style="stop-color:#F5F5F5"/>
							<stop  offset="0.9893" style="stop-color:#E4E3E4"/>
							<stop  offset="1" style="stop-color:#E4E3E4"/>
						</linearGradient>
						<polygon fill="url(#SVGID_7_)" points="-46.114,-15.498 -46.114,-10.513 -34.436,9.713 -2.707,9.713 11.849,-15.498 						"/>
						<path fill="#FFFFFF" d="M10.487-14.712L-3.161,8.927h-30.822l-11.345-19.65v-3.989H10.487 M11.85-15.498h-57.963v4.986
							l11.677,20.226h31.73L11.85-15.498L11.85-15.498z"/>
					</g>
					<g>
						<linearGradient id="SVGID_8_" gradientUnits="userSpaceOnUse" x1="8.0407" y1="33.9444" x2="55.8741" y2="-13.889">
							<stop  offset="0" style="stop-color:#FBFBFB"/>
							<stop  offset="0.419" style="stop-color:#F5F5F5"/>
							<stop  offset="0.9893" style="stop-color:#E4E3E4"/>
							<stop  offset="1" style="stop-color:#E4E3E4"/>
						</linearGradient>
						<polygon fill="url(#SVGID_8_)" points="14.401,-15.498 -0.751,10.746 15.114,38.224 46.843,38.224 62.708,10.746 
							47.556,-15.498 						"/>
						<path fill="#FFFFFF" d="M47.102-14.712L61.8,10.746L46.389,37.438H15.568L0.157,10.746l14.698-25.458H47.102 M47.556-15.498
							H14.401L-0.751,10.746l15.865,27.479h31.73l15.865-27.479L47.556-15.498L47.556-15.498z"/>
					</g>
					<g>
						<linearGradient id="SVGID_9_" gradientUnits="userSpaceOnUse" x1="61.2575" y1="9.1003" x2="109.0908" y2="-38.733">
							<stop  offset="0" style="stop-color:#FBFBFB"/>
							<stop  offset="0.419" style="stop-color:#F5F5F5"/>
							<stop  offset="0.9893" style="stop-color:#E4E3E4"/>
							<stop  offset="1" style="stop-color:#E4E3E4"/>
						</linearGradient>
						<polygon fill="url(#SVGID_9_)" points="50.108,-15.498 64.664,9.713 96.393,9.713 110.949,-15.498 						"/>
						<path fill="#FFFFFF" d="M109.587-14.712L95.939,8.927H65.118L51.47-14.712H109.587 M110.95-15.498H50.108L64.664,9.713h31.729
							L110.95-15.498L110.95-15.498z"/>
					</g>
					<g>
						<linearGradient id="SVGID_10_" gradientUnits="userSpaceOnUse" x1="107.1406" y1="33.9445" x2="154.974" y2="-13.8889">
							<stop  offset="0" style="stop-color:#FBFBFB"/>
							<stop  offset="0.419" style="stop-color:#F5F5F5"/>
							<stop  offset="0.9893" style="stop-color:#E4E3E4"/>
							<stop  offset="1" style="stop-color:#E4E3E4"/>
						</linearGradient>
						<polygon fill="url(#SVGID_10_)" points="113.501,-15.498 98.349,10.746 114.214,38.224 145.943,38.224 161.808,10.746 
							146.656,-15.498 						"/>
						<path fill="#FFFFFF" d="M146.202-14.712L160.9,10.746l-15.411,26.692h-30.822L99.257,10.746l14.698-25.458H146.202
							 M146.656-15.498h-33.155L98.349,10.746l15.865,27.479h31.73l15.865-27.479L146.656-15.498L146.656-15.498z"/>
					</g>
					<g>
						<linearGradient id="SVGID_11_" gradientUnits="userSpaceOnUse" x1="160.3574" y1="9.1003" x2="208.1906" y2="-38.7329">
							<stop  offset="0" style="stop-color:#FBFBFB"/>
							<stop  offset="0.419" style="stop-color:#F5F5F5"/>
							<stop  offset="0.9893" style="stop-color:#E4E3E4"/>
							<stop  offset="1" style="stop-color:#E4E3E4"/>
						</linearGradient>
						<polygon fill="url(#SVGID_11_)" points="149.207,-15.498 163.764,9.713 195.493,9.713 210.049,-15.498 						"/>
						<path fill="#FFFFFF" d="M208.687-14.712L195.039,8.927h-30.821L150.57-14.712H208.687 M210.049-15.498h-60.842l14.556,25.212
							h31.729L210.049-15.498L210.049-15.498z"/>
					</g>
					<g>
						<linearGradient id="SVGID_12_" gradientUnits="userSpaceOnUse" x1="206.2405" y1="33.9444" x2="254.0738" y2="-13.8889">
							<stop  offset="0" style="stop-color:#FBFBFB"/>
							<stop  offset="0.419" style="stop-color:#F5F5F5"/>
							<stop  offset="0.9893" style="stop-color:#E4E3E4"/>
							<stop  offset="1" style="stop-color:#E4E3E4"/>
						</linearGradient>
						<polygon fill="url(#SVGID_12_)" points="212.601,-15.498 197.449,10.746 213.314,38.224 245.043,38.224 260.908,10.746 
							245.756,-15.498 						"/>
						<path fill="#FFFFFF" d="M245.301-14.712L260,10.746l-15.411,26.692h-30.821l-15.411-26.692l14.698-25.458H245.301
							 M245.756-15.498h-33.155l-15.152,26.244l15.865,27.479h31.729l15.865-27.479L245.756-15.498L245.756-15.498z"/>
					</g>
					<g>
						<linearGradient id="SVGID_13_" gradientUnits="userSpaceOnUse" x1="-80.1857" y1="102.0689" x2="-32.3522" y2="54.2355">
							<stop  offset="0" style="stop-color:#FBFBFB"/>
							<stop  offset="0.419" style="stop-color:#F5F5F5"/>
							<stop  offset="0.9893" style="stop-color:#E4E3E4"/>
							<stop  offset="1" style="stop-color:#E4E3E4"/>
						</linearGradient>
						<polygon fill="url(#SVGID_13_)" points="-46.114,51.158 -46.114,84.836 -36.392,67.997 						"/>
						<path fill="#FFFFFF" d="M-45.327,54.093l8.027,13.904L-45.327,81.9V54.093 M-46.113,51.158v33.678l9.722-16.839
							L-46.113,51.158L-46.113,51.158z"/>
					</g>
					<g>
						<linearGradient id="SVGID_14_" gradientUnits="userSpaceOnUse" x1="-80.1858" y1="159.1236" x2="-32.3522" y2="111.29">
							<stop  offset="0" style="stop-color:#FBFBFB"/>
							<stop  offset="0.419" style="stop-color:#F5F5F5"/>
							<stop  offset="0.9893" style="stop-color:#E4E3E4"/>
							<stop  offset="1" style="stop-color:#E4E3E4"/>
						</linearGradient>
						<polygon fill="url(#SVGID_14_)" points="-46.114,108.213 -46.114,141.89 -36.392,125.051 						"/>
						<path fill="#FFFFFF" d="M-45.327,111.148l8.027,13.904l-8.027,13.904V111.148 M-46.113,108.213v33.678l9.722-16.839
							L-46.113,108.213L-46.113,108.213z"/>
					</g>
					<g>
						<linearGradient id="SVGID_15_" gradientUnits="userSpaceOnUse" x1="-41.6397" y1="62.5542" x2="6.1937" y2="14.7208">
							<stop  offset="0" style="stop-color:#FBFBFB"/>
							<stop  offset="0.419" style="stop-color:#F5F5F5"/>
							<stop  offset="0.9893" style="stop-color:#E4E3E4"/>
							<stop  offset="1" style="stop-color:#E4E3E4"/>
						</linearGradient>
						<polygon fill="url(#SVGID_15_)" points="-2.707,12.007 -34.436,12.007 -46.114,32.233 -46.114,46.739 -34.436,66.965 
							-2.707,66.965 13.158,39.486 						"/>
						<path fill="#FFFFFF" d="M-3.161,12.794L12.25,39.486L-3.161,66.178h-30.822l-11.345-19.65V32.444l11.345-19.65H-3.161
							 M-2.707,12.007h-31.73l-11.677,20.226v14.505l11.677,20.226h31.73l15.865-27.479L-2.707,12.007L-2.707,12.007z"/>
					</g>
					<g>
						<linearGradient id="SVGID_16_" gradientUnits="userSpaceOnUse" x1="-41.6396" y1="119.6088" x2="6.1938" y2="71.7754">
							<stop  offset="0" style="stop-color:#FBFBFB"/>
							<stop  offset="0.419" style="stop-color:#F5F5F5"/>
							<stop  offset="0.9893" style="stop-color:#E4E3E4"/>
							<stop  offset="1" style="stop-color:#E4E3E4"/>
						</linearGradient>
						<polygon fill="url(#SVGID_16_)" points="-2.707,69.062 -34.436,69.062 -46.114,89.288 -46.114,103.793 -34.436,124.019 
							-2.707,124.019 13.158,96.54 						"/>
						<path fill="#FFFFFF" d="M-3.161,69.848L12.25,96.54l-15.411,26.692h-30.822l-11.345-19.65V89.499l11.345-19.65H-3.161
							 M-2.707,69.062h-31.73l-11.677,20.226v14.505l11.677,20.226h31.73L13.158,96.54L-2.707,69.062L-2.707,69.062z"/>
					</g>
					<g>
						<linearGradient id="SVGID_17_" gradientUnits="userSpaceOnUse" x1="7.9102" y1="91.0651" x2="55.7436" y2="43.2317">
							<stop  offset="0" style="stop-color:#FBFBFB"/>
							<stop  offset="0.419" style="stop-color:#F5F5F5"/>
							<stop  offset="0.9893" style="stop-color:#E4E3E4"/>
							<stop  offset="1" style="stop-color:#E4E3E4"/>
						</linearGradient>
						<polygon fill="url(#SVGID_17_)" points="46.843,40.518 15.114,40.518 -0.751,67.997 15.114,95.476 46.843,95.476 
							62.708,67.997 						"/>
						<path fill="#FFFFFF" d="M46.389,41.305L61.8,67.997L46.389,94.689H15.568L0.157,67.997l15.411-26.692H46.389 M46.843,40.518
							H15.114L-0.751,67.997l15.865,27.479h31.729l15.865-27.479L46.843,40.518L46.843,40.518z"/>
					</g>
					<g>
						<linearGradient id="SVGID_18_" gradientUnits="userSpaceOnUse" x1="7.9102" y1="148.1196" x2="55.7436" y2="100.2862">
							<stop  offset="0" style="stop-color:#FBFBFB"/>
							<stop  offset="0.419" style="stop-color:#F5F5F5"/>
							<stop  offset="0.9893" style="stop-color:#E4E3E4"/>
							<stop  offset="1" style="stop-color:#E4E3E4"/>
						</linearGradient>
						<polygon fill="url(#SVGID_18_)" points="46.843,97.573 15.114,97.573 -0.751,125.051 15.114,152.53 46.843,152.53 
							62.708,125.051 						"/>
						<path fill="#FFFFFF" d="M46.389,98.359L61.8,125.051l-15.411,26.692H15.568L0.157,125.051l15.411-26.692H46.389
							 M46.843,97.573H15.114l-15.865,27.479l15.865,27.479h31.729l15.865-27.479L46.843,97.573L46.843,97.573z"/>
					</g>
					<g>
						<linearGradient id="SVGID_19_" gradientUnits="userSpaceOnUse" x1="57.4603" y1="62.5542" x2="105.2936" y2="14.7208">
							<stop  offset="0" style="stop-color:#FBFBFB"/>
							<stop  offset="0.419" style="stop-color:#F5F5F5"/>
							<stop  offset="0.9893" style="stop-color:#E4E3E4"/>
							<stop  offset="1" style="stop-color:#E4E3E4"/>
						</linearGradient>
						<polygon fill="url(#SVGID_19_)" points="96.393,12.007 64.664,12.007 48.799,39.486 64.664,66.965 96.393,66.965 
							112.258,39.486 						"/>
						<path fill="#FFFFFF" d="M95.939,12.794l15.411,26.692L95.939,66.178H65.118L49.707,39.486l15.411-26.692H95.939
							 M96.393,12.007h-31.73L48.799,39.486l15.865,27.479h31.73l15.865-27.479L96.393,12.007L96.393,12.007z"/>
					</g>
					<g>
						<linearGradient id="SVGID_20_" gradientUnits="userSpaceOnUse" x1="57.4603" y1="119.6088" x2="105.2936" y2="71.7754">
							<stop  offset="0" style="stop-color:#FBFBFB"/>
							<stop  offset="0.419" style="stop-color:#F5F5F5"/>
							<stop  offset="0.9893" style="stop-color:#E4E3E4"/>
							<stop  offset="1" style="stop-color:#E4E3E4"/>
						</linearGradient>
						<polygon fill="url(#SVGID_20_)" points="96.393,69.062 64.664,69.062 48.799,96.54 64.664,124.019 96.393,124.019 
							112.258,96.54 						"/>
						<path fill="#FFFFFF" d="M95.939,69.848L111.35,96.54l-15.411,26.692H65.118L49.707,96.54l15.411-26.692H95.939 M96.393,69.062
							h-31.73L48.799,96.54l15.865,27.479h31.73l15.865-27.479L96.393,69.062L96.393,69.062z"/>
					</g>
					<g>
						<linearGradient id="SVGID_21_" gradientUnits="userSpaceOnUse" x1="107.0101" y1="91.0651" x2="154.8436" y2="43.2317">
							<stop  offset="0" style="stop-color:#FBFBFB"/>
							<stop  offset="0.419" style="stop-color:#F5F5F5"/>
							<stop  offset="0.9893" style="stop-color:#E4E3E4"/>
							<stop  offset="1" style="stop-color:#E4E3E4"/>
						</linearGradient>
						<polygon fill="url(#SVGID_21_)" points="145.943,40.518 114.214,40.518 98.349,67.997 114.214,95.476 145.943,95.476 
							161.808,67.997 						"/>
						<path fill="#FFFFFF" d="M145.489,41.305L160.9,67.997l-15.411,26.692h-30.821L99.257,67.997l15.411-26.692H145.489
							 M145.943,40.518h-31.729L98.349,67.997l15.865,27.479h31.729l15.865-27.479L145.943,40.518L145.943,40.518z"/>
					</g>
					<g>
						<linearGradient id="SVGID_22_" gradientUnits="userSpaceOnUse" x1="107.0101" y1="148.1196" x2="154.8436" y2="100.2862">
							<stop  offset="0" style="stop-color:#FBFBFB"/>
							<stop  offset="0.419" style="stop-color:#F5F5F5"/>
							<stop  offset="0.9893" style="stop-color:#E4E3E4"/>
							<stop  offset="1" style="stop-color:#E4E3E4"/>
						</linearGradient>
						<polygon fill="url(#SVGID_22_)" points="145.943,97.573 114.214,97.573 98.349,125.051 114.214,152.53 145.943,152.53 
							161.808,125.051 						"/>
						<path fill="#FFFFFF" d="M145.489,98.359l15.411,26.692l-15.411,26.692h-30.821l-15.411-26.692l15.411-26.692H145.489
							 M145.943,97.573h-31.729l-15.865,27.479l15.865,27.479h31.729l15.865-27.479L145.943,97.573L145.943,97.573z"/>
					</g>
					<g>
						<linearGradient id="SVGID_23_" gradientUnits="userSpaceOnUse" x1="156.5602" y1="62.5542" x2="204.3935" y2="14.7208">
							<stop  offset="0" style="stop-color:#FBFBFB"/>
							<stop  offset="0.419" style="stop-color:#F5F5F5"/>
							<stop  offset="0.9893" style="stop-color:#E4E3E4"/>
							<stop  offset="1" style="stop-color:#E4E3E4"/>
						</linearGradient>
						<polygon fill="url(#SVGID_23_)" points="195.493,12.007 163.764,12.007 147.899,39.486 163.764,66.965 195.493,66.965 
							211.358,39.486 						"/>
						<path fill="#FFFFFF" d="M195.039,12.794l15.411,26.692l-15.411,26.692h-30.821l-15.411-26.692l15.411-26.692H195.039
							 M195.493,12.007h-31.729l-15.865,27.479l15.865,27.479h31.729l15.865-27.479L195.493,12.007L195.493,12.007z"/>
					</g>
					<g>
						<linearGradient id="SVGID_24_" gradientUnits="userSpaceOnUse" x1="404.3098" y1="148.1196" x2="452.1431" y2="100.2863">
							<stop  offset="0" style="stop-color:#FBFBFB"/>
							<stop  offset="0.419" style="stop-color:#F5F5F5"/>
							<stop  offset="0.9893" style="stop-color:#E4E3E4"/>
							<stop  offset="1" style="stop-color:#E4E3E4"/>
						</linearGradient>
						<polygon fill="url(#SVGID_24_)" points="453.361,115.099 443.243,97.573 411.513,97.573 395.648,125.051 411.513,152.53 
							443.243,152.53 453.361,135.004 						"/>
						<path fill="#FFFFFF" d="M442.789,98.359l9.786,16.95v19.484l-9.786,16.95h-30.821l-15.411-26.692l15.411-26.692H442.789
							 M443.243,97.573h-31.729l-15.865,27.479l15.865,27.479h31.729l10.119-17.526v-19.906L443.243,97.573L443.243,97.573z"/>
					</g>
					<g>
						<linearGradient id="SVGID_25_" gradientUnits="userSpaceOnUse" x1="442.0764" y1="107.8254" x2="489.9101" y2="59.9918">
							<stop  offset="0" style="stop-color:#FBFBFB"/>
							<stop  offset="0.419" style="stop-color:#F5F5F5"/>
							<stop  offset="0.9893" style="stop-color:#E4E3E4"/>
							<stop  offset="1" style="stop-color:#E4E3E4"/>
						</linearGradient>
						<polygon fill="url(#SVGID_25_)" points="453.361,82.402 445.198,96.54 453.361,110.679 						"/>
						<path fill="#FFFFFF" d="M452.575,85.337v22.407l-6.468-11.203L452.575,85.337 M453.362,82.402l-8.163,14.139l8.163,14.139
							V82.402L453.362,82.402z"/>
					</g>
					<g>
						<linearGradient id="SVGID_26_" gradientUnits="userSpaceOnUse" x1="-80.1857" y1="216.3746" x2="-32.3522" y2="168.5412">
							<stop  offset="0" style="stop-color:#FBFBFB"/>
							<stop  offset="0.419" style="stop-color:#F5F5F5"/>
							<stop  offset="0.9893" style="stop-color:#E4E3E4"/>
							<stop  offset="1" style="stop-color:#E4E3E4"/>
						</linearGradient>
						<polygon fill="url(#SVGID_26_)" points="-46.114,165.464 -46.114,199.141 -36.392,182.303 						"/>
						<path fill="#FFFFFF" d="M-45.327,168.399l8.027,13.904l-8.027,13.904V168.399 M-46.113,165.464v33.678l9.722-16.839
							L-46.113,165.464L-46.113,165.464z"/>
					</g>
					<g>
						<linearGradient id="SVGID_27_" gradientUnits="userSpaceOnUse" x1="-80.1857" y1="273.4291" x2="-32.3522" y2="225.5957">
							<stop  offset="0" style="stop-color:#FBFBFB"/>
							<stop  offset="0.419" style="stop-color:#F5F5F5"/>
							<stop  offset="0.9893" style="stop-color:#E4E3E4"/>
							<stop  offset="1" style="stop-color:#E4E3E4"/>
						</linearGradient>
						<polygon fill="url(#SVGID_27_)" points="-46.114,222.518 -46.114,256.196 -36.392,239.357 						"/>
						<path fill="#FFFFFF" d="M-45.327,225.454l8.027,13.903l-8.027,13.904V225.454 M-46.113,222.518v33.678l9.722-16.839
							L-46.113,222.518L-46.113,222.518z"/>
					</g>
					<g>
						<linearGradient id="SVGID_28_" gradientUnits="userSpaceOnUse" x1="-41.6396" y1="176.8599" x2="6.1938" y2="129.0265">
							<stop  offset="0" style="stop-color:#FBFBFB"/>
							<stop  offset="0.419" style="stop-color:#F5F5F5"/>
							<stop  offset="0.9893" style="stop-color:#E4E3E4"/>
							<stop  offset="1" style="stop-color:#E4E3E4"/>
						</linearGradient>
						<polygon fill="url(#SVGID_28_)" points="-2.707,126.313 -34.436,126.313 -46.114,146.539 -46.114,161.044 -34.436,181.27 
							-2.707,181.27 13.158,153.792 						"/>
						<path fill="#FFFFFF" d="M-3.161,127.1l15.411,26.692l-15.411,26.692h-30.822l-11.345-19.65V146.75l11.345-19.65H-3.161
							 M-2.707,126.313h-31.73l-11.677,20.226v14.505l11.677,20.226h31.73l15.865-27.479L-2.707,126.313L-2.707,126.313z"/>
					</g>
					<g>
						<linearGradient id="SVGID_29_" gradientUnits="userSpaceOnUse" x1="-41.6397" y1="233.9144" x2="6.1937" y2="186.081">
							<stop  offset="0" style="stop-color:#FBFBFB"/>
							<stop  offset="0.419" style="stop-color:#F5F5F5"/>
							<stop  offset="0.9893" style="stop-color:#E4E3E4"/>
							<stop  offset="1" style="stop-color:#E4E3E4"/>
						</linearGradient>
						<polygon fill="url(#SVGID_29_)" points="-2.707,183.367 -34.436,183.367 -46.114,203.594 -46.114,218.099 -34.436,238.325 
							-2.707,238.325 13.158,210.846 						"/>
						<path fill="#FFFFFF" d="M-3.161,184.154l15.411,26.692l-15.411,26.692h-30.822l-11.345-19.65v-14.084l11.345-19.65H-3.161
							 M-2.707,183.367h-31.73l-11.677,20.226v14.505l11.677,20.226h31.73l15.865-27.479L-2.707,183.367L-2.707,183.367z"/>
					</g>
					<g>
						<linearGradient id="SVGID_30_" gradientUnits="userSpaceOnUse" x1="7.9102" y1="205.3708" x2="55.7436" y2="157.5374">
							<stop  offset="0" style="stop-color:#FBFBFB"/>
							<stop  offset="0.419" style="stop-color:#F5F5F5"/>
							<stop  offset="0.9893" style="stop-color:#E4E3E4"/>
							<stop  offset="1" style="stop-color:#E4E3E4"/>
						</linearGradient>
						<polygon fill="url(#SVGID_30_)" points="46.843,154.824 15.114,154.824 -0.751,182.303 15.114,209.781 46.843,209.781 
							62.708,182.303 						"/>
						<path fill="#FFFFFF" d="M46.389,155.61L61.8,182.303l-15.411,26.692H15.568L0.157,182.303l15.411-26.692H46.389
							 M46.843,154.824H15.114l-15.865,27.479l15.865,27.479h31.729l15.865-27.479L46.843,154.824L46.843,154.824z"/>
					</g>
					<g>
						<linearGradient id="SVGID_31_" gradientUnits="userSpaceOnUse" x1="7.9102" y1="262.4253" x2="55.7436" y2="214.5919">
							<stop  offset="0" style="stop-color:#FBFBFB"/>
							<stop  offset="0.419" style="stop-color:#F5F5F5"/>
							<stop  offset="0.9893" style="stop-color:#E4E3E4"/>
							<stop  offset="1" style="stop-color:#E4E3E4"/>
						</linearGradient>
						<polygon fill="url(#SVGID_31_)" points="46.843,211.878 15.114,211.878 -0.751,239.357 15.114,266.836 46.843,266.836 
							62.708,239.357 						"/>
						<path fill="#FFFFFF" d="M46.389,212.665L61.8,239.357l-15.411,26.692H15.568L0.157,239.357l15.411-26.692H46.389
							 M46.843,211.878H15.114l-15.865,27.479l15.865,27.479h31.729l15.865-27.479L46.843,211.878L46.843,211.878z"/>
					</g>
					<g>
						<linearGradient id="SVGID_32_" gradientUnits="userSpaceOnUse" x1="57.4603" y1="176.8599" x2="105.2936" y2="129.0265">
							<stop  offset="0" style="stop-color:#FBFBFB"/>
							<stop  offset="0.419" style="stop-color:#F5F5F5"/>
							<stop  offset="0.9893" style="stop-color:#E4E3E4"/>
							<stop  offset="1" style="stop-color:#E4E3E4"/>
						</linearGradient>
						<polygon fill="url(#SVGID_32_)" points="96.393,126.313 64.664,126.313 48.799,153.792 64.664,181.27 96.393,181.27 
							112.258,153.792 						"/>
						<path fill="#FFFFFF" d="M95.939,127.1l15.411,26.692l-15.411,26.692H65.118l-15.411-26.692L65.118,127.1H95.939
							 M96.393,126.313h-31.73l-15.865,27.479l15.865,27.479h31.73l15.865-27.479L96.393,126.313L96.393,126.313z"/>
					</g>
					<g>
						<linearGradient id="SVGID_33_" gradientUnits="userSpaceOnUse" x1="57.4603" y1="233.9144" x2="105.2936" y2="186.0811">
							<stop  offset="0" style="stop-color:#FBFBFB"/>
							<stop  offset="0.419" style="stop-color:#F5F5F5"/>
							<stop  offset="0.9893" style="stop-color:#E4E3E4"/>
							<stop  offset="1" style="stop-color:#E4E3E4"/>
						</linearGradient>
						<polygon fill="url(#SVGID_33_)" points="96.393,183.368 64.664,183.368 48.799,210.846 64.664,238.325 96.393,238.325 
							112.258,210.846 						"/>
						<path fill="#FFFFFF" d="M95.939,184.154l15.411,26.692l-15.411,26.692H65.118l-15.411-26.692l15.411-26.692H95.939
							 M96.393,183.368h-31.73l-15.865,27.479l15.865,27.479h31.73l15.865-27.479L96.393,183.368L96.393,183.368z"/>
					</g>
					<g>
						<linearGradient id="SVGID_34_" gradientUnits="userSpaceOnUse" x1="107.0101" y1="205.3708" x2="154.8436" y2="157.5374">
							<stop  offset="0" style="stop-color:#FBFBFB"/>
							<stop  offset="0.419" style="stop-color:#F5F5F5"/>
							<stop  offset="0.9893" style="stop-color:#E4E3E4"/>
							<stop  offset="1" style="stop-color:#E4E3E4"/>
						</linearGradient>
						<polygon fill="url(#SVGID_34_)" points="145.943,154.824 114.214,154.824 98.349,182.303 114.214,209.781 145.943,209.781 
							161.808,182.303 						"/>
						<path fill="#FFFFFF" d="M145.489,155.61l15.411,26.692l-15.411,26.692h-30.821l-15.411-26.692l15.411-26.692H145.489
							 M145.943,154.824h-31.729l-15.865,27.479l15.865,27.479h31.729l15.865-27.479L145.943,154.824L145.943,154.824z"/>
					</g>
					<g>
						<linearGradient id="SVGID_35_" gradientUnits="userSpaceOnUse" x1="305.21" y1="262.4253" x2="353.0433" y2="214.5919">
							<stop  offset="0" style="stop-color:#FBFBFB"/>
							<stop  offset="0.419" style="stop-color:#F5F5F5"/>
							<stop  offset="0.9893" style="stop-color:#E4E3E4"/>
							<stop  offset="1" style="stop-color:#E4E3E4"/>
						</linearGradient>
						<polygon fill="url(#SVGID_35_)" points="344.143,211.878 312.413,211.878 296.549,239.357 312.413,266.836 344.143,266.836 
							360.008,239.357 						"/>
						<path fill="#FFFFFF" d="M343.689,212.665l15.411,26.692l-15.411,26.692h-30.821l-15.411-26.692l15.411-26.692H343.689
							 M344.143,211.878h-31.729l-15.865,27.479l15.865,27.479h31.729l15.865-27.479L344.143,211.878L344.143,211.878z"/>
					</g>
					<g>
						<linearGradient id="SVGID_36_" gradientUnits="userSpaceOnUse" x1="354.7599" y1="176.8599" x2="402.5933" y2="129.0265">
							<stop  offset="0" style="stop-color:#FBFBFB"/>
							<stop  offset="0.419" style="stop-color:#F5F5F5"/>
							<stop  offset="0.9893" style="stop-color:#E4E3E4"/>
							<stop  offset="1" style="stop-color:#E4E3E4"/>
						</linearGradient>
						<polygon fill="url(#SVGID_36_)" points="393.693,126.313 361.963,126.313 346.099,153.792 361.963,181.27 393.693,181.27 
							409.558,153.792 						"/>
						<path fill="#FFFFFF" d="M393.239,127.1l15.411,26.692l-15.411,26.692h-30.822l-15.411-26.692l15.411-26.692H393.239
							 M393.693,126.313h-31.73l-15.865,27.479l15.865,27.479h31.73l15.865-27.479L393.693,126.313L393.693,126.313z"/>
					</g>
					<g>
						<linearGradient id="SVGID_37_" gradientUnits="userSpaceOnUse" x1="354.7599" y1="233.9144" x2="402.5932" y2="186.0811">
							<stop  offset="0" style="stop-color:#FBFBFB"/>
							<stop  offset="0.419" style="stop-color:#F5F5F5"/>
							<stop  offset="0.9893" style="stop-color:#E4E3E4"/>
							<stop  offset="1" style="stop-color:#E4E3E4"/>
						</linearGradient>
						<polygon fill="url(#SVGID_37_)" points="393.693,183.368 361.963,183.368 346.099,210.846 361.963,238.325 393.693,238.325 
							409.558,210.846 						"/>
						<path fill="#FFFFFF" d="M393.239,184.154l15.411,26.692l-15.411,26.692h-30.822l-15.411-26.692l15.411-26.692H393.239
							 M393.693,183.368h-31.73l-15.865,27.479l15.865,27.479h31.73l15.865-27.479L393.693,183.368L393.693,183.368z"/>
					</g>
					<g>
						<linearGradient id="SVGID_38_" gradientUnits="userSpaceOnUse" x1="404.3098" y1="205.3708" x2="452.1431" y2="157.5375">
							<stop  offset="0" style="stop-color:#FBFBFB"/>
							<stop  offset="0.419" style="stop-color:#F5F5F5"/>
							<stop  offset="0.9893" style="stop-color:#E4E3E4"/>
							<stop  offset="1" style="stop-color:#E4E3E4"/>
						</linearGradient>
						<polygon fill="url(#SVGID_38_)" points="453.361,172.35 443.243,154.824 411.513,154.824 395.648,182.303 411.513,209.781 
							443.243,209.781 453.361,192.255 						"/>
						<path fill="#FFFFFF" d="M442.789,155.61l9.786,16.95v19.484l-9.786,16.95h-30.821l-15.411-26.692l15.411-26.692H442.789
							 M443.243,154.824h-31.729l-15.865,27.479l15.865,27.479h31.729l10.119-17.526V172.35L443.243,154.824L443.243,154.824z"/>
					</g>
					<g>
						<linearGradient id="SVGID_39_" gradientUnits="userSpaceOnUse" x1="404.3098" y1="262.4253" x2="452.1431" y2="214.592">
							<stop  offset="0" style="stop-color:#FBFBFB"/>
							<stop  offset="0.419" style="stop-color:#F5F5F5"/>
							<stop  offset="0.9893" style="stop-color:#E4E3E4"/>
							<stop  offset="1" style="stop-color:#E4E3E4"/>
						</linearGradient>
						<polygon fill="url(#SVGID_39_)" points="453.361,229.404 443.243,211.878 411.513,211.878 395.648,239.357 411.513,266.836 
							443.243,266.836 453.361,249.31 						"/>
						<path fill="#FFFFFF" d="M442.789,212.665l9.786,16.95v19.484l-9.786,16.95h-30.821l-15.411-26.692l15.411-26.692H442.789
							 M443.243,211.878h-31.729l-15.865,27.479l15.865,27.479h31.729l10.119-17.526v-19.906L443.243,211.878L443.243,211.878z"/>
					</g>
					<g>
						<linearGradient id="SVGID_40_" gradientUnits="userSpaceOnUse" x1="442.0765" y1="165.0766" x2="489.9101" y2="117.243">
							<stop  offset="0" style="stop-color:#FBFBFB"/>
							<stop  offset="0.419" style="stop-color:#F5F5F5"/>
							<stop  offset="0.9893" style="stop-color:#E4E3E4"/>
							<stop  offset="1" style="stop-color:#E4E3E4"/>
						</linearGradient>
						<polygon fill="url(#SVGID_40_)" points="453.361,139.653 445.198,153.792 453.361,167.93 						"/>
						<path fill="#FFFFFF" d="M452.575,142.588v22.407l-6.468-11.203L452.575,142.588 M453.362,139.653l-8.163,14.139l8.163,14.139
							V139.653L453.362,139.653z"/>
					</g>
					<g>
						<linearGradient id="SVGID_41_" gradientUnits="userSpaceOnUse" x1="442.0764" y1="222.1311" x2="489.9101" y2="174.2975">
							<stop  offset="0" style="stop-color:#FBFBFB"/>
							<stop  offset="0.419" style="stop-color:#F5F5F5"/>
							<stop  offset="0.9893" style="stop-color:#E4E3E4"/>
							<stop  offset="1" style="stop-color:#E4E3E4"/>
						</linearGradient>
						<polygon fill="url(#SVGID_41_)" points="453.361,196.708 445.198,210.846 453.361,224.985 						"/>
						<path fill="#FFFFFF" d="M452.575,199.643v22.407l-6.468-11.203L452.575,199.643 M453.362,196.708l-8.163,14.139l8.163,14.139
							V196.708L453.362,196.708z"/>
					</g>
					<g>
						<linearGradient id="SVGID_42_" gradientUnits="userSpaceOnUse" x1="-80.1858" y1="330.6804" x2="-32.3522" y2="282.8468">
							<stop  offset="0" style="stop-color:#FBFBFB"/>
							<stop  offset="0.419" style="stop-color:#F5F5F5"/>
							<stop  offset="0.9893" style="stop-color:#E4E3E4"/>
							<stop  offset="1" style="stop-color:#E4E3E4"/>
						</linearGradient>
						<polygon fill="url(#SVGID_42_)" points="-46.114,279.769 -46.114,313.447 -36.392,296.608 						"/>
						<path fill="#FFFFFF" d="M-45.327,282.705l8.027,13.903l-8.027,13.904V282.705 M-46.113,279.769v33.678l9.722-16.839
							L-46.113,279.769L-46.113,279.769z"/>
					</g>
					<g>
						<linearGradient id="SVGID_43_" gradientUnits="userSpaceOnUse" x1="-41.6397" y1="291.1656" x2="6.1937" y2="243.3322">
							<stop  offset="0" style="stop-color:#FBFBFB"/>
							<stop  offset="0.419" style="stop-color:#F5F5F5"/>
							<stop  offset="0.9893" style="stop-color:#E4E3E4"/>
							<stop  offset="1" style="stop-color:#E4E3E4"/>
						</linearGradient>
						<polygon fill="url(#SVGID_43_)" points="-2.707,240.619 -34.436,240.619 -46.114,260.845 -46.114,275.35 -34.436,295.576 
							-2.707,295.576 13.158,268.097 						"/>
						<path fill="#FFFFFF" d="M-3.161,241.405l15.411,26.692l-15.411,26.692h-30.822l-11.345-19.65v-14.084l11.345-19.65H-3.161
							 M-2.707,240.619h-31.73l-11.677,20.226v14.505l11.677,20.226h31.73l15.865-27.479L-2.707,240.619L-2.707,240.619z"/>
					</g>
					<g>
						<linearGradient id="SVGID_44_" gradientUnits="userSpaceOnUse" x1="-45.7921" y1="344.0677" x2="2.0415" y2="296.2341">
							<stop  offset="0" style="stop-color:#FBFBFB"/>
							<stop  offset="0.419" style="stop-color:#F5F5F5"/>
							<stop  offset="0.9893" style="stop-color:#E4E3E4"/>
							<stop  offset="1" style="stop-color:#E4E3E4"/>
						</linearGradient>
						<polygon fill="url(#SVGID_44_)" points="11.33,321.985 -2.707,297.673 -34.436,297.673 -46.114,317.899 -46.114,321.985 
													"/>
						<path fill="#FFFFFF" d="M-3.161,298.46l13.128,22.738h-55.294v-3.088l11.345-19.65H-3.161 M-2.707,297.673h-31.73
							l-11.677,20.226v4.085H11.33L-2.707,297.673L-2.707,297.673z"/>
					</g>
					<g>
						<linearGradient id="SVGID_45_" gradientUnits="userSpaceOnUse" x1="7.6882" y1="319.4543" x2="55.5216" y2="271.6209">
							<stop  offset="0" style="stop-color:#FBFBFB"/>
							<stop  offset="0.419" style="stop-color:#F5F5F5"/>
							<stop  offset="0.9893" style="stop-color:#E4E3E4"/>
							<stop  offset="1" style="stop-color:#E4E3E4"/>
						</linearGradient>
						<polygon fill="url(#SVGID_45_)" points="48.057,321.985 62.708,296.608 46.843,269.13 15.114,269.13 -0.751,296.608 
							13.9,321.985 						"/>
						<path fill="#FFFFFF" d="M46.389,269.916L61.8,296.608l-14.197,24.59H14.354l-14.197-24.59l15.411-26.692H46.389
							 M46.843,269.13h-31.73l-15.865,27.479L13.9,321.985h34.157l14.651-25.376L46.843,269.13L46.843,269.13z"/>
					</g>
					<g>
						<linearGradient id="SVGID_46_" gradientUnits="userSpaceOnUse" x1="57.4603" y1="291.1656" x2="105.2936" y2="243.3322">
							<stop  offset="0" style="stop-color:#FBFBFB"/>
							<stop  offset="0.419" style="stop-color:#F5F5F5"/>
							<stop  offset="0.9893" style="stop-color:#E4E3E4"/>
							<stop  offset="1" style="stop-color:#E4E3E4"/>
						</linearGradient>
						<polygon fill="url(#SVGID_46_)" points="96.393,240.619 64.664,240.619 48.799,268.097 64.664,295.576 96.393,295.576 
							112.258,268.097 						"/>
						<path fill="#FFFFFF" d="M95.939,241.405l15.411,26.692l-15.411,26.692H65.118l-15.411-26.692l15.411-26.692H95.939
							 M96.393,240.619h-31.73l-15.865,27.479l15.865,27.479h31.73l15.865-27.479L96.393,240.619L96.393,240.619z"/>
					</g>
					<g>
						<linearGradient id="SVGID_47_" gradientUnits="userSpaceOnUse" x1="205.8879" y1="319.4543" x2="253.7213" y2="271.6209">
							<stop  offset="0" style="stop-color:#FBFBFB"/>
							<stop  offset="0.419" style="stop-color:#F5F5F5"/>
							<stop  offset="0.9893" style="stop-color:#E4E3E4"/>
							<stop  offset="1" style="stop-color:#E4E3E4"/>
						</linearGradient>
						<polygon fill="url(#SVGID_47_)" points="246.257,321.985 260.908,296.608 245.043,269.13 213.314,269.13 197.449,296.608 
							212.1,321.985 						"/>
						<path fill="#FFFFFF" d="M244.589,269.916L260,296.608l-14.197,24.59h-33.249l-14.197-24.59l15.411-26.692H244.589
							 M245.043,269.13h-31.729l-15.865,27.479l14.651,25.376h34.157l14.651-25.376L245.043,269.13L245.043,269.13z"/>
					</g>
					<g>
						<linearGradient id="SVGID_48_" gradientUnits="userSpaceOnUse" x1="255.6599" y1="291.1656" x2="303.4933" y2="243.3322">
							<stop  offset="0" style="stop-color:#FBFBFB"/>
							<stop  offset="0.419" style="stop-color:#F5F5F5"/>
							<stop  offset="0.9893" style="stop-color:#E4E3E4"/>
							<stop  offset="1" style="stop-color:#E4E3E4"/>
						</linearGradient>
						<polygon fill="url(#SVGID_48_)" points="294.593,240.619 262.863,240.619 246.999,268.097 262.863,295.576 294.593,295.576 
							310.458,268.097 						"/>
						<path fill="#FFFFFF" d="M294.139,241.405l15.411,26.692l-15.411,26.692h-30.821l-15.411-26.692l15.411-26.692H294.139
							 M294.593,240.619h-31.729l-15.865,27.479l15.865,27.479h31.729l15.865-27.479L294.593,240.619L294.593,240.619z"/>
					</g>
					<g>
						<linearGradient id="SVGID_49_" gradientUnits="userSpaceOnUse" x1="251.5076" y1="344.0677" x2="299.3412" y2="296.234">
							<stop  offset="0" style="stop-color:#FBFBFB"/>
							<stop  offset="0.419" style="stop-color:#F5F5F5"/>
							<stop  offset="0.9893" style="stop-color:#E4E3E4"/>
							<stop  offset="1" style="stop-color:#E4E3E4"/>
						</linearGradient>
						<polygon fill="url(#SVGID_49_)" points="308.629,321.985 294.593,297.673 262.863,297.673 248.827,321.985 						"/>
						<path fill="#FFFFFF" d="M294.139,298.46l13.128,22.738H250.19l13.128-22.738H294.139 M294.593,297.673h-31.729l-14.036,24.311
							h59.802L294.593,297.673L294.593,297.673z"/>
					</g>
					<g>
						<linearGradient id="SVGID_50_" gradientUnits="userSpaceOnUse" x1="304.9878" y1="319.4543" x2="352.8213" y2="271.6209">
							<stop  offset="0" style="stop-color:#FBFBFB"/>
							<stop  offset="0.419" style="stop-color:#F5F5F5"/>
							<stop  offset="0.9893" style="stop-color:#E4E3E4"/>
							<stop  offset="1" style="stop-color:#E4E3E4"/>
						</linearGradient>
						<polygon fill="url(#SVGID_50_)" points="345.357,321.985 360.008,296.608 344.143,269.13 312.413,269.13 296.548,296.608 
							311.2,321.985 						"/>
						<path fill="#FFFFFF" d="M343.689,269.916l15.411,26.692l-14.197,24.59h-33.249l-14.197-24.59l15.411-26.692H343.689
							 M344.143,269.13h-31.729l-15.865,27.479l14.651,25.376h34.157l14.651-25.376L344.143,269.13L344.143,269.13z"/>
					</g>
					<g>
						<linearGradient id="SVGID_51_" gradientUnits="userSpaceOnUse" x1="354.7599" y1="291.1656" x2="402.5933" y2="243.3322">
							<stop  offset="0" style="stop-color:#FBFBFB"/>
							<stop  offset="0.419" style="stop-color:#F5F5F5"/>
							<stop  offset="0.9893" style="stop-color:#E4E3E4"/>
							<stop  offset="1" style="stop-color:#E4E3E4"/>
						</linearGradient>
						<polygon fill="url(#SVGID_51_)" points="393.693,240.619 361.963,240.619 346.099,268.097 361.963,295.576 393.693,295.576 
							409.558,268.097 						"/>
						<path fill="#FFFFFF" d="M393.239,241.405l15.411,26.692l-15.411,26.692h-30.822l-15.411-26.692l15.411-26.692H393.239
							 M393.693,240.619h-31.73l-15.865,27.479l15.865,27.479h31.73l15.865-27.479L393.693,240.619L393.693,240.619z"/>
					</g>
					<g>
						<linearGradient id="SVGID_52_" gradientUnits="userSpaceOnUse" x1="350.6075" y1="344.0677" x2="398.441" y2="296.2341">
							<stop  offset="0" style="stop-color:#FBFBFB"/>
							<stop  offset="0.419" style="stop-color:#F5F5F5"/>
							<stop  offset="0.9893" style="stop-color:#E4E3E4"/>
							<stop  offset="1" style="stop-color:#E4E3E4"/>
						</linearGradient>
						<polygon fill="url(#SVGID_52_)" points="407.729,321.985 393.693,297.673 361.963,297.673 347.927,321.985 						"/>
						<path fill="#FFFFFF" d="M393.239,298.46l13.128,22.738h-57.078l13.128-22.738H393.239 M393.693,297.673h-31.73l-14.036,24.311
							h59.802L393.693,297.673L393.693,297.673z"/>
					</g>
					<g>
						<linearGradient id="SVGID_53_" gradientUnits="userSpaceOnUse" x1="404.0877" y1="319.4543" x2="451.9211" y2="271.6209">
							<stop  offset="0" style="stop-color:#FBFBFB"/>
							<stop  offset="0.419" style="stop-color:#F5F5F5"/>
							<stop  offset="0.9893" style="stop-color:#E4E3E4"/>
							<stop  offset="1" style="stop-color:#E4E3E4"/>
						</linearGradient>
						<polygon fill="url(#SVGID_53_)" points="453.361,286.655 443.243,269.13 411.513,269.13 395.648,296.608 410.299,321.985 
							444.457,321.985 453.361,306.561 						"/>
						<path fill="#FFFFFF" d="M442.789,269.916l9.786,16.95v19.484l-8.572,14.848h-33.249l-14.197-24.59l15.411-26.692H442.789
							 M443.243,269.13h-31.729l-15.865,27.479l14.651,25.376h34.157l8.905-15.424v-19.906L443.243,269.13L443.243,269.13z"/>
					</g>
					<g>
						<linearGradient id="SVGID_54_" gradientUnits="userSpaceOnUse" x1="442.0765" y1="279.3823" x2="489.9099" y2="231.5488">
							<stop  offset="0" style="stop-color:#FBFBFB"/>
							<stop  offset="0.419" style="stop-color:#F5F5F5"/>
							<stop  offset="0.9893" style="stop-color:#E4E3E4"/>
							<stop  offset="1" style="stop-color:#E4E3E4"/>
						</linearGradient>
						<polygon fill="url(#SVGID_54_)" points="453.361,253.959 445.198,268.097 453.361,282.236 						"/>
						<path fill="#FFFFFF" d="M452.575,256.894v22.407l-6.468-11.203L452.575,256.894 M453.362,253.959l-8.163,14.139l8.163,14.139
							V253.959L453.362,253.959z"/>
					</g>
					<g>
						<linearGradient id="SVGID_55_" gradientUnits="userSpaceOnUse" x1="437.75" y1="332.1103" x2="485.5835" y2="284.2768">
							<stop  offset="0" style="stop-color:#FBFBFB"/>
							<stop  offset="0.419" style="stop-color:#F5F5F5"/>
							<stop  offset="0.9893" style="stop-color:#E4E3E4"/>
							<stop  offset="1" style="stop-color:#E4E3E4"/>
						</linearGradient>
						<polygon fill="url(#SVGID_55_)" points="453.361,311.013 447.027,321.985 453.361,321.985 						"/>
						<path fill="#FFFFFF" d="M452.575,313.948v7.25h-4.185L452.575,313.948 M453.362,311.013l-6.335,10.971h6.335V311.013
							L453.362,311.013z"/>
					</g>
				</g>
			</g>
		</g>
	</g>
	<g display="none">
		<g display="inline">
			<path fill="#707078" d="M234.627,150.076v-10.085h-4.549v10.085h-1.006v-23.204c0-0.828,0.299-1.541,0.895-2.138
				c0.585-0.585,1.298-0.877,2.138-0.877h0.512c0.828,0,1.541,0.292,2.138,0.877c0.585,0.597,0.877,1.31,0.877,2.138v23.204H234.627
				z M234.627,138.986v-12.113c0-0.548-0.195-1.023-0.585-1.425c-0.401-0.39-0.877-0.585-1.425-0.585h-0.512
				c-0.561,0-1.035,0.195-1.426,0.585c-0.401,0.402-0.602,0.877-0.602,1.425v12.113H234.627z"/>
			<path fill="#707078" d="M245.15,136.958c0,1.084-0.45,1.925-1.353,2.521c0.902,0.609,1.353,1.45,1.353,2.521v5.043
				c0,0.84-0.292,1.553-0.877,2.138c-0.597,0.597-1.31,0.895-2.138,0.895h-3.545v-26.218h3.545c0.828,0,1.541,0.292,2.138,0.877
				c0.585,0.597,0.877,1.31,0.877,2.138V136.958z M244.145,126.873c0-0.548-0.195-1.023-0.585-1.425
				c-0.401-0.39-0.877-0.585-1.425-0.585h-2.539v14.123h2.539c0.548,0,1.023-0.201,1.425-0.603c0.39-0.39,0.585-0.865,0.585-1.425
				V126.873z M244.145,142.001c0-0.548-0.195-1.023-0.585-1.425c-0.401-0.39-0.877-0.585-1.425-0.585h-2.539v9.081h2.539
				c0.548,0,1.023-0.201,1.425-0.603c0.39-0.39,0.585-0.865,0.585-1.425V142.001z"/>
			<path fill="#707078" d="M253.662,131.916v-5.043c0-0.548-0.195-1.023-0.586-1.425c-0.401-0.39-0.877-0.585-1.424-0.585h-0.512
				c-0.561,0-1.035,0.195-1.426,0.585c-0.402,0.402-0.603,0.877-0.603,1.425v3.746c0,0.78,0.189,1.51,0.566,2.192l4.312,7.82
				c0.451,0.829,0.676,1.717,0.676,2.668v3.746c0,0.84-0.292,1.553-0.877,2.138c-0.597,0.597-1.309,0.895-2.137,0.895h-0.512
				c-0.841,0-1.553-0.298-2.139-0.895c-0.596-0.585-0.895-1.297-0.895-2.138v-5.043h1.005v5.043c0,0.56,0.2,1.035,0.603,1.425
				c0.391,0.402,0.865,0.603,1.426,0.603h0.512c0.547,0,1.022-0.201,1.424-0.603c0.391-0.39,0.586-0.865,0.586-1.425v-3.746
				c0-0.768-0.189-1.492-0.566-2.174l-4.294-7.82c-0.464-0.828-0.694-1.723-0.694-2.686v-3.746c0-0.828,0.299-1.541,0.895-2.138
				c0.586-0.585,1.298-0.877,2.139-0.877h0.512c0.828,0,1.54,0.292,2.137,0.877c0.585,0.597,0.877,1.31,0.877,2.138v5.043H253.662z"
				/>
			<path fill="#707078" d="M265.19,123.858v1.005h-3.272v25.213h-1.022v-25.213h-3.271v-1.005H265.19z"/>
			<path fill="#707078" d="M274.707,136.958c0,1.096-0.457,1.943-1.371,2.54c0.889,0.597,1.334,1.432,1.334,2.503v8.076h-1.005
				v-8.076c0-0.548-0.194-1.023-0.585-1.425c-0.402-0.39-0.877-0.585-1.425-0.585h-2.503v10.085h-1.005v-26.218h3.544
				c0.828,0,1.541,0.292,2.139,0.877c0.584,0.597,0.877,1.31,0.877,2.138V136.958z M273.701,126.873
				c0-0.548-0.195-1.023-0.584-1.425c-0.402-0.39-0.877-0.585-1.426-0.585h-2.539v14.123h2.539c0.549,0,1.023-0.201,1.426-0.603
				c0.389-0.39,0.584-0.865,0.584-1.425V126.873z"/>
			<path fill="#707078" d="M283.219,150.076v-10.085h-4.549v10.085h-1.005v-23.204c0-0.828,0.298-1.541,0.896-2.138
				c0.584-0.585,1.297-0.877,2.137-0.877h0.512c0.828,0,1.541,0.292,2.139,0.877c0.584,0.597,0.877,1.31,0.877,2.138v23.204H283.219
				z M283.219,138.986v-12.113c0-0.548-0.195-1.023-0.584-1.425c-0.402-0.39-0.877-0.585-1.426-0.585h-0.512
				c-0.56,0-1.035,0.195-1.425,0.585c-0.401,0.402-0.603,0.877-0.603,1.425v12.113H283.219z"/>
			<path fill="#707078" d="M292.737,131.422v-4.549c0-0.548-0.195-1.023-0.585-1.425c-0.401-0.39-0.877-0.585-1.425-0.585h-0.512
				c-0.561,0-1.035,0.195-1.426,0.585c-0.401,0.402-0.602,0.877-0.602,1.425v20.171c0,0.56,0.2,1.035,0.602,1.425
				c0.391,0.402,0.865,0.603,1.426,0.603h0.512c0.548,0,1.023-0.201,1.425-0.603c0.39-0.39,0.585-0.865,0.585-1.425v-4.531h1.005
				v4.531c0,0.84-0.292,1.553-0.877,2.138c-0.597,0.597-1.31,0.895-2.138,0.895h-0.512c-0.84,0-1.553-0.298-2.138-0.895
				c-0.597-0.585-0.896-1.297-0.896-2.138v-20.171c0-0.828,0.299-1.541,0.896-2.138c0.585-0.585,1.298-0.877,2.138-0.877h0.512
				c0.828,0,1.541,0.292,2.138,0.877c0.585,0.597,0.877,1.31,0.877,2.138v4.549H292.737z"/>
			<path fill="#707078" d="M304.264,123.858v1.005h-3.271v25.213h-1.022v-25.213h-3.271v-1.005H304.264z"/>
		</g>
		<g display="inline">
			<path fill="#707078" d="M224.65,161.273h-2.728v-6.232h2.424c0.422,0,0.787,0.051,1.093,0.152c0.306,0.101,0.536,0.238,0.69,0.41
				c0.279,0.321,0.42,0.684,0.42,1.088c0,0.487-0.158,0.85-0.473,1.087c-0.107,0.083-0.182,0.135-0.223,0.156
				c-0.043,0.021-0.117,0.055-0.224,0.103c0.386,0.083,0.694,0.257,0.923,0.521c0.229,0.264,0.344,0.593,0.344,0.985
				c0,0.434-0.149,0.817-0.446,1.15C226.106,161.08,225.505,161.273,224.65,161.273z M223.313,157.565h0.659
				c0.386,0,0.673-0.042,0.86-0.125c0.188-0.083,0.281-0.263,0.281-0.539s-0.086-0.459-0.259-0.548
				c-0.173-0.089-0.464-0.134-0.874-0.134h-0.668V157.565z M223.313,160.096h0.953c0.398,0,0.697-0.049,0.896-0.147
				c0.199-0.098,0.299-0.291,0.299-0.579c0-0.288-0.105-0.479-0.316-0.57c-0.211-0.092-0.549-0.138-1.012-0.138h-0.82V160.096z"/>
			<path fill="#707078" d="M234.571,161.273l-0.579-1.346h-2.612l-0.579,1.346h-1.48l2.692-6.232h1.347l2.691,6.232H234.571z
				 M232.691,156.896l-0.784,1.81h1.56L232.691,156.896z"/>
			<path fill="#707078" d="M241.775,160.043c0.683,0,1.241-0.271,1.676-0.812l0.892,0.918c-0.707,0.796-1.541,1.194-2.5,1.194
				c-0.961,0-1.751-0.303-2.372-0.909c-0.621-0.606-0.932-1.372-0.932-2.295c0-0.924,0.316-1.695,0.95-2.314
				c0.633-0.618,1.406-0.927,2.322-0.927c1.021,0,1.877,0.389,2.566,1.168l-0.864,0.98c-0.44-0.547-0.987-0.82-1.641-0.82
				c-0.522,0-0.97,0.171-1.341,0.513c-0.372,0.342-0.558,0.802-0.558,1.382c0,0.58,0.175,1.044,0.526,1.395
				C240.85,159.868,241.275,160.043,241.775,160.043z"/>
			<path fill="#707078" d="M247.578,155.042h1.391v2.559l2.354-2.559h1.721l-2.479,2.755c0.213,0.297,0.609,0.851,1.186,1.663
				c0.576,0.811,1.008,1.416,1.293,1.814h-1.623l-1.828-2.46l-0.623,0.695v1.765h-1.391V155.042z"/>
			<path fill="#707078" d="M260.094,158.099h1.399v2.211c-0.618,0.689-1.474,1.034-2.567,1.034c-0.915,0-1.684-0.303-2.305-0.909
				c-0.621-0.606-0.932-1.372-0.932-2.295c0-0.924,0.316-1.695,0.949-2.314c0.633-0.618,1.397-0.927,2.291-0.927
				c0.895,0,1.672,0.294,2.332,0.883l-0.723,1.043c-0.279-0.244-0.536-0.412-0.772-0.504c-0.234-0.092-0.488-0.138-0.762-0.138
				c-0.529,0-0.975,0.18-1.337,0.54c-0.362,0.359-0.544,0.833-0.544,1.422c0,0.588,0.174,1.059,0.522,1.413
				c0.348,0.354,0.762,0.531,1.244,0.531c0.48,0,0.883-0.092,1.203-0.276V158.099z"/>
			<path fill="#707078" d="M269.927,157.11c0,0.999-0.396,1.643-1.186,1.935l1.577,2.229h-1.711l-1.382-1.988h-0.963v1.988h-1.391
				v-6.232h2.362c0.969,0,1.66,0.164,2.072,0.49C269.721,155.859,269.927,156.385,269.927,157.11z M268.251,157.85
				c0.172-0.154,0.259-0.399,0.259-0.735c0-0.335-0.09-0.566-0.268-0.691c-0.179-0.124-0.49-0.187-0.937-0.187h-1.043v1.845h1.017
				C267.754,158.082,268.078,158.005,268.251,157.85z"/>
			<path fill="#707078" d="M278.672,160.413c-0.631,0.615-1.406,0.923-2.327,0.923s-1.696-0.308-2.327-0.923
				c-0.629-0.615-0.944-1.38-0.944-2.295c0-0.915,0.315-1.681,0.944-2.295c0.631-0.615,1.406-0.923,2.327-0.923
				s1.696,0.308,2.327,0.923c0.629,0.615,0.945,1.38,0.945,2.295C279.617,159.032,279.301,159.798,278.672,160.413z
				 M278.199,158.122c0-0.556-0.178-1.03-0.535-1.422c-0.356-0.392-0.795-0.588-1.315-0.588c-0.521,0-0.959,0.196-1.315,0.588
				c-0.356,0.392-0.534,0.866-0.534,1.422c0,0.556,0.178,1.028,0.534,1.417c0.357,0.389,0.795,0.584,1.315,0.584
				c0.52,0,0.958-0.195,1.315-0.584C278.022,159.15,278.199,158.677,278.199,158.122z"/>
			<path fill="#707078" d="M284.582,159.664c0.231,0.288,0.543,0.432,0.935,0.432s0.703-0.144,0.932-0.432
				c0.228-0.289,0.344-0.682,0.344-1.181v-3.441h1.391v3.486c0,0.903-0.25,1.597-0.749,2.081c-0.499,0.484-1.138,0.727-1.917,0.727
				c-0.778,0-1.418-0.244-1.921-0.731c-0.502-0.487-0.753-1.18-0.753-2.077v-3.486h1.391v3.441
				C284.234,158.982,284.35,159.376,284.582,159.664z"/>
			<path fill="#707078" d="M296.127,155.042h1.391v6.232h-1.391l-2.969-3.905v3.905h-1.391v-6.232h1.301l3.059,4.012V155.042z"/>
			<path fill="#707078" d="M305.95,155.857c0.595,0.544,0.892,1.3,0.892,2.269c0,0.969-0.289,1.735-0.869,2.3
				c-0.58,0.564-1.463,0.847-2.652,0.847h-2.131v-6.232h2.203C304.503,155.042,305.356,155.314,305.95,155.857z M304.93,159.562
				c0.342-0.321,0.513-0.788,0.513-1.4c0-0.612-0.171-1.083-0.513-1.413c-0.342-0.33-0.866-0.495-1.573-0.495h-0.776v3.789h0.883
				C304.1,160.043,304.588,159.883,304.93,159.562z"/>
		</g>
	</g>
</g>
</svg>
