<svg width="161" height="180" viewBox="0 0 161 180" fill="none" xmlns="http://www.w3.org/2000/svg">
<path d="M59.3948 79.7763L85.2315 52.2596C81.5644 61.4975 90.8062 70.1446 96.7147 76.0305C102.623 81.9165 103.12 91.7512 102.63 95.9328C102.71 105.739 93.2606 112.634 88.526 114.856C75.6476 120.915 63.4624 109.912 58.9796 103.653C52.3331 96.9999 56.487 84.9631 59.3948 79.7763Z" fill="#D86069"/>
<path d="M28.6799 43.8602L67.1919 5.16982C77.7122 -5.39913 91.823 2.65343 97.5633 8.00082C108.084 19.0732 104.452 30.8585 101.321 35.3672L65.6265 73.4284C52.1165 87.6684 56.6524 100.719 61.78 106.813L63.7861 108.836C63.1334 108.29 62.4516 107.611 61.78 106.813L28.6799 73.4284C17.4081 61.8527 23.9833 48.8931 28.6799 43.8602Z" fill="#EB636D"/>
<path d="M22.2007 1.41094C38.7106 1.41094 44.9226 14.8008 45.9649 21.4958L25.3276 43.4636C14.321 54.5103 20.7415 68.779 25.3276 74.5324L45.9649 95.2449C45.4646 111.815 30.7475 116.376 23.4515 116.585C4.94044 116.585 0.104229 102.358 0 95.2449V21.4958C2.00119 5.17685 15.6343 1.30633 22.2007 1.41094Z" fill="#953C50"/>
<path fill-rule="evenodd" clip-rule="evenodd" d="M142.281 116.937C152.067 116.937 160 108.895 160 98.9741C160 89.0532 152.067 81.0108 142.281 81.0108C132.495 81.0108 124.561 89.0532 124.561 98.9741C124.561 108.895 132.495 116.937 142.281 116.937ZM144.912 115.528C152.664 115.528 158.947 109.221 158.947 101.44C158.947 93.6586 152.664 87.3508 144.912 87.3508C137.161 87.3508 130.877 93.6586 130.877 101.44C130.877 109.221 137.161 115.528 144.912 115.528Z" fill="#9C3F58"/>
<path d="M25.287 177V171.528H24.063V170.349H27.762V171.528H26.52V177H25.287ZM32.7581 175.038H28.8971C28.9691 175.338 29.1251 175.578 29.3651 175.758C29.6111 175.932 29.9141 176.019 30.2741 176.019C30.5261 176.019 30.7331 175.983 30.8951 175.911C31.0571 175.839 31.2161 175.71 31.3721 175.524H32.6771C32.5271 175.992 32.2301 176.376 31.7861 176.676C31.3421 176.97 30.8471 177.117 30.3011 177.117C29.5451 177.117 28.9061 176.868 28.3841 176.37C27.8621 175.872 27.6011 175.257 27.6011 174.525C27.6011 173.793 27.8561 173.172 28.3661 172.662C28.8761 172.152 29.4971 171.897 30.2291 171.897C30.9731 171.897 31.5881 172.149 32.0741 172.653C32.5601 173.157 32.8031 173.799 32.8031 174.579C32.8031 174.741 32.7881 174.894 32.7581 175.038ZM28.8611 173.985H31.6241C31.4681 173.325 31.0121 172.995 30.2561 172.995C29.5181 172.995 29.0531 173.325 28.8611 173.985ZM37.1469 175.362H38.4969C38.2929 175.92 37.9749 176.352 37.5429 176.658C37.1169 176.964 36.6099 177.117 36.0219 177.117C35.2839 177.117 34.6539 176.865 34.1319 176.361C33.6159 175.851 33.3579 175.233 33.3579 174.507C33.3579 173.769 33.6099 173.151 34.1139 172.653C34.6239 172.149 35.2479 171.897 35.9859 171.897C36.5799 171.897 37.0989 172.053 37.5429 172.365C37.9869 172.677 38.3049 173.115 38.4969 173.679H37.1469C36.9129 173.223 36.5259 172.995 35.9859 172.995C35.5659 172.995 35.2239 173.133 34.9599 173.409C34.6959 173.685 34.5639 174.048 34.5639 174.498C34.5639 174.936 34.7019 175.299 34.9779 175.587C35.2539 175.875 35.5989 176.019 36.0129 176.019C36.4869 176.019 36.8649 175.8 37.1469 175.362ZM39.3307 177V170.349H40.5277V172.356C40.8757 172.044 41.2957 171.888 41.7877 171.888C43.0957 171.888 43.7497 172.653 43.7497 174.183V177H42.5527V174.453C42.5527 173.925 42.4777 173.55 42.3277 173.328C42.1837 173.106 41.9347 172.995 41.5807 172.995C41.2087 172.995 40.9387 173.112 40.7707 173.346C40.6087 173.574 40.5277 173.949 40.5277 174.471V177H39.3307ZM44.7272 177V172.014H45.8342V172.491C46.0562 172.275 46.2722 172.122 46.4822 172.032C46.6922 171.942 46.9442 171.897 47.2382 171.897C47.9042 171.897 48.3902 172.089 48.6962 172.473C49.0022 172.857 49.1552 173.475 49.1552 174.327V177H47.9582V174.561C47.9582 173.979 47.8862 173.574 47.7422 173.346C47.6042 173.112 47.3582 172.995 47.0042 172.995C46.6142 172.995 46.3352 173.124 46.1672 173.382C46.0052 173.634 45.9242 174.057 45.9242 174.651V177H44.7272ZM52.5537 171.897C53.2977 171.897 53.9247 172.152 54.4347 172.662C54.9507 173.166 55.2087 173.784 55.2087 174.516C55.2087 175.23 54.9507 175.842 54.4347 176.352C53.9187 176.862 53.2947 177.117 52.5627 177.117C51.8307 177.117 51.2037 176.865 50.6817 176.361C50.1657 175.851 49.9077 175.233 49.9077 174.507C49.9077 173.787 50.1657 173.172 50.6817 172.662C51.1977 172.152 51.8217 171.897 52.5537 171.897ZM52.5537 172.995C52.1577 172.995 51.8187 173.142 51.5367 173.436C51.2547 173.73 51.1137 174.087 51.1137 174.507C51.1137 174.927 51.2547 175.284 51.5367 175.578C51.8187 175.872 52.1577 176.019 52.5537 176.019C52.9557 176.019 53.2977 175.872 53.5797 175.578C53.8617 175.284 54.0027 174.927 54.0027 174.507C54.0027 174.087 53.8617 173.73 53.5797 173.436C53.2977 173.142 52.9557 172.995 52.5537 172.995ZM55.8805 177V170.349H57.0775V177H55.8805ZM60.4726 171.897C61.2166 171.897 61.8436 172.152 62.3536 172.662C62.8696 173.166 63.1276 173.784 63.1276 174.516C63.1276 175.23 62.8696 175.842 62.3536 176.352C61.8376 176.862 61.2136 177.117 60.4816 177.117C59.7496 177.117 59.1226 176.865 58.6006 176.361C58.0846 175.851 57.8266 175.233 57.8266 174.507C57.8266 173.787 58.0846 173.172 58.6006 172.662C59.1166 172.152 59.7406 171.897 60.4726 171.897ZM60.4726 172.995C60.0766 172.995 59.7376 173.142 59.4556 173.436C59.1736 173.73 59.0326 174.087 59.0326 174.507C59.0326 174.927 59.1736 175.284 59.4556 175.578C59.7376 175.872 60.0766 176.019 60.4726 176.019C60.8746 176.019 61.2166 175.872 61.4986 175.578C61.7806 175.284 61.9216 174.927 61.9216 174.507C61.9216 174.087 61.7806 173.73 61.4986 173.436C61.2166 173.142 60.8746 172.995 60.4726 172.995ZM67.6695 172.014H68.8125V176.055C68.8125 178.011 67.9515 178.989 66.2295 178.989C65.6115 178.989 65.0805 178.851 64.6365 178.575C64.1925 178.299 63.8685 177.909 63.6645 177.405H65.0235C65.3355 177.759 65.7465 177.936 66.2565 177.936C66.7185 177.936 67.0695 177.804 67.3095 177.54C67.5495 177.276 67.6695 176.877 67.6695 176.343C67.4355 176.619 67.1925 176.817 66.9405 176.937C66.6885 177.057 66.3855 177.117 66.0315 177.117C65.3235 177.117 64.7385 176.868 64.2765 176.37C63.8145 175.872 63.5835 175.239 63.5835 174.471C63.5835 173.733 63.8145 173.121 64.2765 172.635C64.7445 172.143 65.3325 171.897 66.0405 171.897C66.7545 171.897 67.2975 172.146 67.6695 172.644V172.014ZM66.1755 172.995C65.7555 172.995 65.4195 173.133 65.1675 173.409C64.9155 173.685 64.7895 174.057 64.7895 174.525C64.7895 174.981 64.9155 175.344 65.1675 175.614C65.4195 175.884 65.7615 176.019 66.1935 176.019C66.6315 176.019 66.9765 175.884 67.2285 175.614C67.4865 175.338 67.6155 174.963 67.6155 174.489C67.6155 174.051 67.4805 173.694 67.2105 173.418C66.9465 173.136 66.6015 172.995 66.1755 172.995ZM70.1999 178.665L71.1359 176.532L69.3089 172.014H70.6769L71.7839 175.245L72.9899 172.014H74.3669L71.4869 178.665H70.1999ZM77.169 175.416H78.375C78.435 175.626 78.516 175.779 78.618 175.875C78.726 175.971 78.867 176.019 79.041 176.019C79.197 176.019 79.326 175.974 79.428 175.884C79.53 175.794 79.581 175.677 79.581 175.533C79.581 175.383 79.53 175.269 79.428 175.191C79.326 175.113 79.059 175.002 78.627 174.858C78.201 174.714 77.88 174.531 77.664 174.309C77.454 174.081 77.349 173.784 77.349 173.418C77.349 172.992 77.508 172.632 77.826 172.338C78.144 172.044 78.537 171.897 79.005 171.897C79.479 171.897 79.869 172.038 80.175 172.32C80.487 172.596 80.643 172.953 80.643 173.391H79.473C79.419 173.127 79.263 172.995 79.005 172.995C78.879 172.995 78.771 173.034 78.681 173.112C78.591 173.19 78.546 173.289 78.546 173.409C78.546 173.523 78.582 173.613 78.654 173.679C78.732 173.739 78.867 173.799 79.059 173.859L79.392 173.958C79.896 174.114 80.253 174.303 80.463 174.525C80.673 174.741 80.778 175.038 80.778 175.416C80.778 175.896 80.604 176.301 80.256 176.631C79.914 176.955 79.494 177.117 78.996 177.117C78.468 177.117 78.045 176.97 77.727 176.676C77.409 176.382 77.223 175.962 77.169 175.416ZM83.8779 171.897C84.6219 171.897 85.2489 172.152 85.7589 172.662C86.2749 173.166 86.5329 173.784 86.5329 174.516C86.5329 175.23 86.2749 175.842 85.7589 176.352C85.2429 176.862 84.6189 177.117 83.8869 177.117C83.1549 177.117 82.5279 176.865 82.0059 176.361C81.4899 175.851 81.2319 175.233 81.2319 174.507C81.2319 173.787 81.4899 173.172 82.0059 172.662C82.5219 172.152 83.1459 171.897 83.8779 171.897ZM83.8779 172.995C83.4819 172.995 83.1429 173.142 82.8609 173.436C82.5789 173.73 82.4379 174.087 82.4379 174.507C82.4379 174.927 82.5789 175.284 82.8609 175.578C83.1429 175.872 83.4819 176.019 83.8779 176.019C84.2799 176.019 84.6219 175.872 84.9039 175.578C85.1859 175.284 85.3269 174.927 85.3269 174.507C85.3269 174.087 85.1859 173.73 84.9039 173.436C84.6219 173.142 84.2799 172.995 83.8779 172.995ZM87.2048 177V170.349H88.4018V177H87.2048ZM93.8039 172.014V177H92.6969V176.523C92.4749 176.739 92.2559 176.892 92.0399 176.982C91.8239 177.072 91.5659 177.117 91.2659 177.117C89.9999 177.117 89.3669 176.307 89.3669 174.687V172.014H90.5639V174.453C90.5639 175.035 90.6329 175.443 90.7709 175.677C90.9089 175.905 91.1549 176.019 91.5089 176.019C91.9169 176.019 92.2019 175.899 92.3639 175.659C92.5259 175.413 92.6069 174.981 92.6069 174.363V172.014H93.8039ZM94.9433 177V173.103H94.3583V172.014H94.9433V170.349H96.1403V172.014H96.8603V173.103H96.1403V177H94.9433ZM97.4616 177V172.014H98.6586V177H97.4616ZM97.4616 171.474V170.349H98.6586V171.474H97.4616ZM102.054 171.897C102.798 171.897 103.425 172.152 103.935 172.662C104.451 173.166 104.709 173.784 104.709 174.516C104.709 175.23 104.451 175.842 103.935 176.352C103.419 176.862 102.795 177.117 102.063 177.117C101.331 177.117 100.704 176.865 100.182 176.361C99.6657 175.851 99.4077 175.233 99.4077 174.507C99.4077 173.787 99.6657 173.172 100.182 172.662C100.698 172.152 101.322 171.897 102.054 171.897ZM102.054 172.995C101.658 172.995 101.319 173.142 101.037 173.436C100.755 173.73 100.614 174.087 100.614 174.507C100.614 174.927 100.755 175.284 101.037 175.578C101.319 175.872 101.658 176.019 102.054 176.019C102.456 176.019 102.798 175.872 103.08 175.578C103.362 175.284 103.503 174.927 103.503 174.507C103.503 174.087 103.362 173.73 103.08 173.436C102.798 173.142 102.456 172.995 102.054 172.995ZM105.381 177V172.014H106.488V172.491C106.71 172.275 106.926 172.122 107.136 172.032C107.346 171.942 107.598 171.897 107.892 171.897C108.558 171.897 109.044 172.089 109.35 172.473C109.656 172.857 109.809 173.475 109.809 174.327V177H108.612V174.561C108.612 173.979 108.54 173.574 108.396 173.346C108.258 173.112 108.012 172.995 107.658 172.995C107.268 172.995 106.989 173.124 106.821 173.382C106.659 173.634 106.578 174.057 106.578 174.651V177H105.381ZM110.462 175.416H111.668C111.728 175.626 111.809 175.779 111.911 175.875C112.019 175.971 112.16 176.019 112.334 176.019C112.49 176.019 112.619 175.974 112.721 175.884C112.823 175.794 112.874 175.677 112.874 175.533C112.874 175.383 112.823 175.269 112.721 175.191C112.619 175.113 112.352 175.002 111.92 174.858C111.494 174.714 111.173 174.531 110.957 174.309C110.747 174.081 110.642 173.784 110.642 173.418C110.642 172.992 110.801 172.632 111.119 172.338C111.437 172.044 111.83 171.897 112.298 171.897C112.772 171.897 113.162 172.038 113.468 172.32C113.78 172.596 113.936 172.953 113.936 173.391H112.766C112.712 173.127 112.556 172.995 112.298 172.995C112.172 172.995 112.064 173.034 111.974 173.112C111.884 173.19 111.839 173.289 111.839 173.409C111.839 173.523 111.875 173.613 111.947 173.679C112.025 173.739 112.16 173.799 112.352 173.859L112.685 173.958C113.189 174.114 113.546 174.303 113.756 174.525C113.966 174.741 114.071 175.038 114.071 175.416C114.071 175.896 113.897 176.301 113.549 176.631C113.207 176.955 112.787 177.117 112.289 177.117C111.761 177.117 111.338 176.97 111.02 176.676C110.702 176.382 110.516 175.962 110.462 175.416ZM121.376 173.103H122.717L121.565 175.083L122.753 176.352L121.898 177.117L120.953 176.118C120.671 176.496 120.407 176.757 120.161 176.901C119.915 177.045 119.615 177.117 119.261 177.117C118.655 177.117 118.142 176.913 117.722 176.505C117.302 176.097 117.092 175.593 117.092 174.993C117.092 174.585 117.188 174.234 117.38 173.94C117.578 173.64 117.896 173.361 118.334 173.103C118.118 172.863 117.971 172.659 117.893 172.491C117.815 172.317 117.776 172.113 117.776 171.879C117.776 171.411 117.935 171.021 118.253 170.709C118.577 170.391 118.979 170.232 119.459 170.232C119.951 170.232 120.359 170.388 120.683 170.7C121.007 171.012 121.169 171.402 121.169 171.87C121.169 172.236 121.094 172.539 120.944 172.779C120.794 173.013 120.521 173.253 120.125 173.499L120.728 174.183L121.376 173.103ZM119.378 172.671C119.624 172.545 119.792 172.428 119.882 172.32C119.978 172.206 120.026 172.068 120.026 171.906C120.026 171.744 119.975 171.612 119.873 171.51C119.771 171.408 119.639 171.357 119.477 171.357C119.315 171.357 119.18 171.411 119.072 171.519C118.97 171.621 118.919 171.75 118.919 171.906C118.919 172.032 118.949 172.146 119.009 172.248C119.069 172.35 119.192 172.491 119.378 172.671ZM120.125 175.218L119.09 174.102C118.556 174.342 118.289 174.663 118.289 175.065C118.289 175.317 118.373 175.524 118.541 175.686C118.709 175.848 118.925 175.929 119.189 175.929C119.393 175.929 119.558 175.881 119.684 175.785C119.816 175.683 119.963 175.494 120.125 175.218ZM125.588 175.416H126.794C126.854 175.626 126.935 175.779 127.037 175.875C127.145 175.971 127.286 176.019 127.46 176.019C127.616 176.019 127.745 175.974 127.847 175.884C127.949 175.794 128 175.677 128 175.533C128 175.383 127.949 175.269 127.847 175.191C127.745 175.113 127.478 175.002 127.046 174.858C126.62 174.714 126.299 174.531 126.083 174.309C125.873 174.081 125.768 173.784 125.768 173.418C125.768 172.992 125.927 172.632 126.245 172.338C126.563 172.044 126.956 171.897 127.424 171.897C127.898 171.897 128.288 172.038 128.594 172.32C128.906 172.596 129.062 172.953 129.062 173.391H127.892C127.838 173.127 127.682 172.995 127.424 172.995C127.298 172.995 127.19 173.034 127.1 173.112C127.01 173.19 126.965 173.289 126.965 173.409C126.965 173.523 127.001 173.613 127.073 173.679C127.151 173.739 127.286 173.799 127.478 173.859L127.811 173.958C128.315 174.114 128.672 174.303 128.882 174.525C129.092 174.741 129.197 175.038 129.197 175.416C129.197 175.896 129.023 176.301 128.675 176.631C128.333 176.955 127.913 177.117 127.415 177.117C126.887 177.117 126.464 176.97 126.146 176.676C125.828 176.382 125.642 175.962 125.588 175.416ZM134.808 175.038H130.947C131.019 175.338 131.175 175.578 131.415 175.758C131.661 175.932 131.964 176.019 132.324 176.019C132.576 176.019 132.783 175.983 132.945 175.911C133.107 175.839 133.266 175.71 133.422 175.524H134.727C134.577 175.992 134.28 176.376 133.836 176.676C133.392 176.97 132.897 177.117 132.351 177.117C131.595 177.117 130.956 176.868 130.434 176.37C129.912 175.872 129.651 175.257 129.651 174.525C129.651 173.793 129.906 173.172 130.416 172.662C130.926 172.152 131.547 171.897 132.279 171.897C133.023 171.897 133.638 172.149 134.124 172.653C134.61 173.157 134.853 173.799 134.853 174.579C134.853 174.741 134.838 174.894 134.808 175.038ZM130.911 173.985H133.674C133.518 173.325 133.062 172.995 132.306 172.995C131.568 172.995 131.103 173.325 130.911 173.985ZM135.624 177V172.014H136.722V172.5C136.878 172.272 137.034 172.116 137.19 172.032C137.346 171.942 137.547 171.897 137.793 171.897H137.892V173.049C137.178 173.049 136.821 173.442 136.821 174.228V177H135.624ZM140.037 177L138.03 172.014H139.362L140.514 175.317L141.648 172.014H142.998L140.991 177H140.037ZM143.543 177V172.014H144.74V177H143.543ZM143.543 171.474V170.349H144.74V171.474H143.543ZM149.278 175.362H150.628C150.424 175.92 150.106 176.352 149.674 176.658C149.248 176.964 148.741 177.117 148.153 177.117C147.415 177.117 146.785 176.865 146.263 176.361C145.747 175.851 145.489 175.233 145.489 174.507C145.489 173.769 145.741 173.151 146.245 172.653C146.755 172.149 147.379 171.897 148.117 171.897C148.711 171.897 149.23 172.053 149.674 172.365C150.118 172.677 150.436 173.115 150.628 173.679H149.278C149.044 173.223 148.657 172.995 148.117 172.995C147.697 172.995 147.355 173.133 147.091 173.409C146.827 173.685 146.695 174.048 146.695 174.498C146.695 174.936 146.833 175.299 147.109 175.587C147.385 175.875 147.73 176.019 148.144 176.019C148.618 176.019 148.996 175.8 149.278 175.362ZM156.403 175.038H152.542C152.614 175.338 152.77 175.578 153.01 175.758C153.256 175.932 153.559 176.019 153.919 176.019C154.171 176.019 154.378 175.983 154.54 175.911C154.702 175.839 154.861 175.71 155.017 175.524H156.322C156.172 175.992 155.875 176.376 155.431 176.676C154.987 176.97 154.492 177.117 153.946 177.117C153.19 177.117 152.551 176.868 152.029 176.37C151.507 175.872 151.246 175.257 151.246 174.525C151.246 173.793 151.501 173.172 152.011 172.662C152.521 172.152 153.142 171.897 153.874 171.897C154.618 171.897 155.233 172.149 155.719 172.653C156.205 173.157 156.448 173.799 156.448 174.579C156.448 174.741 156.433 174.894 156.403 175.038ZM152.506 173.985H155.269C155.113 173.325 154.657 172.995 153.901 172.995C153.163 172.995 152.698 173.325 152.506 173.985ZM156.903 175.416H158.109C158.169 175.626 158.25 175.779 158.352 175.875C158.46 175.971 158.601 176.019 158.775 176.019C158.931 176.019 159.06 175.974 159.162 175.884C159.264 175.794 159.315 175.677 159.315 175.533C159.315 175.383 159.264 175.269 159.162 175.191C159.06 175.113 158.793 175.002 158.361 174.858C157.935 174.714 157.614 174.531 157.398 174.309C157.188 174.081 157.083 173.784 157.083 173.418C157.083 172.992 157.242 172.632 157.56 172.338C157.878 172.044 158.271 171.897 158.739 171.897C159.213 171.897 159.603 172.038 159.909 172.32C160.221 172.596 160.377 172.953 160.377 173.391H159.207C159.153 173.127 158.997 172.995 158.739 172.995C158.613 172.995 158.505 173.034 158.415 173.112C158.325 173.19 158.28 173.289 158.28 173.409C158.28 173.523 158.316 173.613 158.388 173.679C158.466 173.739 158.601 173.799 158.793 173.859L159.126 173.958C159.63 174.114 159.987 174.303 160.197 174.525C160.407 174.741 160.512 175.038 160.512 175.416C160.512 175.896 160.338 176.301 159.99 176.631C159.648 176.955 159.228 177.117 158.73 177.117C158.202 177.117 157.779 176.97 157.461 176.676C157.143 176.382 156.957 175.962 156.903 175.416Z" fill="#333333"/>
<path d="M3.72 163V133.44H9.2V146.2L18.36 133.44H24.96L13.84 147.96L24.96 163H18.36L9.2 150V163H3.72Z" fill="#333333"/>
<path d="M27.9647 163V140.84H33.2847V163H27.9647ZM27.9647 138.44V133.44H33.2847V138.44H27.9647ZM37.5741 163V140.84H42.4941V142.96C43.4807 142 44.4407 141.32 45.3741 140.92C46.3074 140.52 47.4274 140.32 48.7341 140.32C51.6941 140.32 53.8541 141.173 55.2141 142.88C56.5741 144.587 57.2541 147.333 57.2541 151.12V163H51.9341V152.16C51.9341 149.573 51.6141 147.773 50.9741 146.76C50.3607 145.72 49.2674 145.2 47.6941 145.2C45.9607 145.2 44.7207 145.773 43.9741 146.92C43.2541 148.04 42.8941 149.92 42.8941 152.56V163H37.5741ZM83.5184 154.28H66.3584C66.6784 155.613 67.3718 156.68 68.4384 157.48C69.5318 158.253 70.8784 158.64 72.4784 158.64C73.5984 158.64 74.5184 158.48 75.2384 158.16C75.9584 157.84 76.6651 157.267 77.3584 156.44H83.1584C82.4918 158.52 81.1718 160.227 79.1984 161.56C77.2251 162.867 75.0251 163.52 72.5984 163.52C69.2384 163.52 66.3984 162.413 64.0784 160.2C61.7584 157.987 60.5984 155.253 60.5984 152C60.5984 148.747 61.7318 145.987 63.9984 143.72C66.2651 141.453 69.0251 140.32 72.2784 140.32C75.5851 140.32 78.3184 141.44 80.4784 143.68C82.6384 145.92 83.7184 148.773 83.7184 152.24C83.7184 152.96 83.6518 153.64 83.5184 154.28ZM66.1984 149.6H78.4784C77.7851 146.667 75.7584 145.2 72.3984 145.2C69.1184 145.2 67.0518 146.667 66.1984 149.6ZM103.024 155.72H109.024C108.118 158.2 106.704 160.12 104.784 161.48C102.891 162.84 100.638 163.52 98.0244 163.52C94.7444 163.52 91.9444 162.4 89.6244 160.16C87.331 157.893 86.1844 155.147 86.1844 151.92C86.1844 148.64 87.3044 145.893 89.5444 143.68C91.811 141.44 94.5844 140.32 97.8644 140.32C100.504 140.32 102.811 141.013 104.784 142.4C106.758 143.787 108.171 145.733 109.024 148.24H103.024C101.984 146.213 100.264 145.2 97.8644 145.2C95.9977 145.2 94.4777 145.813 93.3044 147.04C92.131 148.267 91.5444 149.88 91.5444 151.88C91.5444 153.827 92.1577 155.44 93.3844 156.72C94.611 158 96.1444 158.64 97.9844 158.64C100.091 158.64 101.771 157.667 103.024 155.72ZM113.53 163V145.68H110.93V140.84H113.53V133.44H118.85V140.84H122.05V145.68H118.85V163H113.53ZM124.723 163V140.84H129.603V143C130.296 141.987 130.989 141.293 131.683 140.92C132.376 140.52 133.269 140.32 134.363 140.32H134.803V145.44C131.629 145.44 130.043 147.187 130.043 150.68V163H124.723ZM147.632 140.32C150.939 140.32 153.725 141.453 155.992 143.72C158.285 145.96 159.432 148.707 159.432 151.96C159.432 155.133 158.285 157.853 155.992 160.12C153.699 162.387 150.925 163.52 147.672 163.52C144.419 163.52 141.632 162.4 139.312 160.16C137.019 157.893 135.872 155.147 135.872 151.92C135.872 148.72 137.019 145.987 139.312 143.72C141.605 141.453 144.379 140.32 147.632 140.32ZM147.632 145.2C145.872 145.2 144.365 145.853 143.112 147.16C141.859 148.467 141.232 150.053 141.232 151.92C141.232 153.787 141.859 155.373 143.112 156.68C144.365 157.987 145.872 158.64 147.632 158.64C149.419 158.64 150.939 157.987 152.192 156.68C153.445 155.373 154.072 153.787 154.072 151.92C154.072 150.053 153.445 148.467 152.192 147.16C150.939 145.853 149.419 145.2 147.632 145.2Z" fill="#EB636D"/>
</svg>
