<svg width="11" height="31" viewBox="0 0 11 31" fill="none" xmlns="http://www.w3.org/2000/svg">
<line x1="5.5" y1="2.18557e-08" x2="5.5" y2="20" stroke="white"/>
<circle cx="5.5" cy="25.5" r="5.5" fill="white"/>
<circle cx="5.5" cy="25.5" r="5.5" stroke="#152E4F"/>
<circle cx="5.5" cy="25.5" r="2" fill="#A14258" stroke="#A14258"/>
</svg>
